This is pdfTeX, Version 3.14159265-2.6-1.40.21 (TeX Live 2020 Gentoo Linux) (preloaded format=pdflatex 2020.11.2)  22 NOV 2020 22:14
entering extended mode
 restricted \write18 enabled.
 %&-line parsing enabled.
**report.tex
(./report.tex
LaTeX2e <2020-02-02> patch level 5
L3 programming layer <2020-02-25>
(/usr/share/texmf-dist/tex/latex/base/article.cls
Document Class: article 2019/12/20 v1.4l Standard LaTeX document class
(/usr/share/texmf-dist/tex/latex/base/size10.clo
File: size10.clo 2019/12/20 v1.4l Standard LaTeX file (size option)
)
\c@part=\count167
\c@section=\count168
\c@subsection=\count169
\c@subsubsection=\count170
\c@paragraph=\count171
\c@subparagraph=\count172
\c@figure=\count173
\c@table=\count174
\abovecaptionskip=\skip47
\belowcaptionskip=\skip48
\bibindent=\dimen134
)
(/usr/share/texmf-dist/tex/latex/hyperref/hyperref.sty
Package: hyperref 2020/01/14 v7.00d Hypertext links for LaTeX

(/usr/share/texmf-dist/tex/generic/ltxcmds/ltxcmds.sty
Package: ltxcmds 2019/12/15 v1.24 LaTeX kernel commands for general use (HO)
)
(/usr/share/texmf-dist/tex/generic/iftex/iftex.sty
Package: iftex 2019/11/07 v1.0c TeX engine tests
)
(/usr/share/texmf-dist/tex/latex/pdftexcmds/pdftexcmds.sty
Package: pdftexcmds 2019/11/24 v0.31 Utility functions of pdfTeX for LuaTeX (HO
)

(/usr/share/texmf-dist/tex/generic/infwarerr/infwarerr.sty
Package: infwarerr 2019/12/03 v1.5 Providing info/warning/error messages (HO)
)
Package pdftexcmds Info: \pdf@primitive is available.
Package pdftexcmds Info: \pdf@ifprimitive is available.
Package pdftexcmds Info: \pdfdraftmode found.
)
(/usr/share/texmf-dist/tex/latex/graphics/keyval.sty
Package: keyval 2014/10/28 v1.15 key=value parser (DPC)
\KV@toks@=\toks15
)
(/usr/share/texmf-dist/tex/generic/kvsetkeys/kvsetkeys.sty
Package: kvsetkeys 2019/12/15 v1.18 Key value parser (HO)
)
(/usr/share/texmf-dist/tex/generic/kvdefinekeys/kvdefinekeys.sty
Package: kvdefinekeys 2019-12-19 v1.6 Define keys (HO)
)
(/usr/share/texmf-dist/tex/generic/pdfescape/pdfescape.sty
Package: pdfescape 2019/12/09 v1.15 Implements pdfTeX's escape features (HO)
)
(/usr/share/texmf-dist/tex/latex/hycolor/hycolor.sty
Package: hycolor 2020-01-27 v1.10 Color options for hyperref/bookmark (HO)
)
(/usr/share/texmf-dist/tex/latex/letltxmacro/letltxmacro.sty
Package: letltxmacro 2019/12/03 v1.6 Let assignment for LaTeX macros (HO)
)
(/usr/share/texmf-dist/tex/latex/auxhook/auxhook.sty
Package: auxhook 2019-12-17 v1.6 Hooks for auxiliary files (HO)
)
(/usr/share/texmf-dist/tex/latex/kvoptions/kvoptions.sty
Package: kvoptions 2019/11/29 v3.13 Key value format for package options (HO)
)
\@linkdim=\dimen135
\Hy@linkcounter=\count175
\Hy@pagecounter=\count176

(/usr/share/texmf-dist/tex/latex/hyperref/pd1enc.def
File: pd1enc.def 2020/01/14 v7.00d Hyperref: PDFDocEncoding definition (HO)
Now handling font encoding PD1 ...
... no UTF-8 mapping file for font encoding PD1
)
(/usr/share/texmf-dist/tex/generic/intcalc/intcalc.sty
Package: intcalc 2019/12/15 v1.3 Expandable calculations with integers (HO)
)
(/usr/share/texmf-dist/tex/generic/etexcmds/etexcmds.sty
Package: etexcmds 2019/12/15 v1.7 Avoid name clashes with e-TeX commands (HO)
)
\Hy@SavedSpaceFactor=\count177
Package hyperref Info: Hyper figures OFF on input line 4547.
Package hyperref Info: Link nesting OFF on input line 4552.
Package hyperref Info: Hyper index ON on input line 4555.
Package hyperref Info: Plain pages OFF on input line 4562.
Package hyperref Info: Backreferencing OFF on input line 4567.
Package hyperref Info: Implicit mode ON; LaTeX internals redefined.
Package hyperref Info: Bookmarks ON on input line 4800.
\c@Hy@tempcnt=\count178

(/usr/share/texmf-dist/tex/latex/url/url.sty
\Urlmuskip=\muskip16
Package: url 2013/09/16  ver 3.4  Verb mode for urls, etc.
)
LaTeX Info: Redefining \url on input line 5159.
\XeTeXLinkMargin=\dimen136

(/usr/share/texmf-dist/tex/generic/bitset/bitset.sty
Package: bitset 2019/12/09 v1.3 Handle bit-vector datatype (HO)

(/usr/share/texmf-dist/tex/generic/bigintcalc/bigintcalc.sty
Package: bigintcalc 2019/12/15 v1.5 Expandable calculations on big integers (HO
)
))
\Fld@menulength=\count179
\Field@Width=\dimen137
\Fld@charsize=\dimen138
Package hyperref Info: Hyper figures OFF on input line 6430.
Package hyperref Info: Link nesting OFF on input line 6435.
Package hyperref Info: Hyper index ON on input line 6438.
Package hyperref Info: backreferencing OFF on input line 6445.
Package hyperref Info: Link coloring OFF on input line 6450.
Package hyperref Info: Link coloring with OCG OFF on input line 6455.
Package hyperref Info: PDF/A mode OFF on input line 6460.
LaTeX Info: Redefining \ref on input line 6500.
LaTeX Info: Redefining \pageref on input line 6504.

(/usr/share/texmf-dist/tex/generic/atbegshi/atbegshi.sty
Package: atbegshi 2019/12/05 v1.19 At begin shipout hook (HO)
)
\Hy@abspage=\count180
\c@Item=\count181
\c@Hfootnote=\count182
)
Package hyperref Info: Driver (autodetected): hpdftex.

(/usr/share/texmf-dist/tex/latex/hyperref/hpdftex.def
File: hpdftex.def 2020/01/14 v7.00d Hyperref driver for pdfTeX

(/usr/share/texmf-dist/tex/latex/atveryend/atveryend.sty
Package: atveryend 2019-12-11 v1.11 Hooks at the very end of document (HO)
Package atveryend Info: \enddocument detected (standard20110627).
)
\Fld@listcount=\count183
\c@bookmark@seq@number=\count184

(/usr/share/texmf-dist/tex/latex/rerunfilecheck/rerunfilecheck.sty
Package: rerunfilecheck 2019/12/05 v1.9 Rerun checks for auxiliary files (HO)

(/usr/share/texmf-dist/tex/generic/uniquecounter/uniquecounter.sty
Package: uniquecounter 2019/12/15 v1.4 Provide unlimited unique counter (HO)
)
Package uniquecounter Info: New unique counter `rerunfilecheck' on input line 2
86.
)
\Hy@SectionHShift=\skip49
)
Package hyperref Info: Option `colorlinks' set `true' on input line 9.

(/usr/share/texmf-dist/tex/latex/graphics/graphicx.sty
Package: graphicx 2019/11/30 v1.2a Enhanced LaTeX Graphics (DPC,SPQR)

(/usr/share/texmf-dist/tex/latex/graphics/graphics.sty
Package: graphics 2019/11/30 v1.4a Standard LaTeX Graphics (DPC,SPQR)

(/usr/share/texmf-dist/tex/latex/graphics/trig.sty
Package: trig 2016/01/03 v1.10 sin cos tan (DPC)
)
(/usr/share/texmf-dist/tex/latex/graphics-cfg/graphics.cfg
File: graphics.cfg 2016/06/04 v1.11 sample graphics configuration
)
Package graphics Info: Driver file: pdftex.def on input line 105.

(/usr/share/texmf-dist/tex/latex/graphics-def/pdftex.def
File: pdftex.def 2018/01/08 v1.0l Graphics/color driver for pdftex
))
\Gin@req@height=\dimen139
\Gin@req@width=\dimen140
)
(/usr/share/texmf-dist/tex/latex/l3backend/l3backend-pdfmode.def
File: l3backend-pdfmode.def 2020-02-23 L3 backend support: PDF mode
\l__kernel_color_stack_int=\count185
\l__pdf_internal_box=\box45
) (./report.aux (./brules.aux) (./databasedesign.aux) (./appdesc.aux) (./manual
.aux))
\openout1 = `report.aux'.

LaTeX Font Info:    Checking defaults for OML/cmm/m/it on input line 17.
LaTeX Font Info:    ... okay on input line 17.
LaTeX Font Info:    Checking defaults for OMS/cmsy/m/n on input line 17.
LaTeX Font Info:    ... okay on input line 17.
LaTeX Font Info:    Checking defaults for OT1/cmr/m/n on input line 17.
LaTeX Font Info:    ... okay on input line 17.
LaTeX Font Info:    Checking defaults for T1/cmr/m/n on input line 17.
LaTeX Font Info:    ... okay on input line 17.
LaTeX Font Info:    Checking defaults for TS1/cmr/m/n on input line 17.
LaTeX Font Info:    ... okay on input line 17.
LaTeX Font Info:    Checking defaults for OMX/cmex/m/n on input line 17.
LaTeX Font Info:    ... okay on input line 17.
LaTeX Font Info:    Checking defaults for U/cmr/m/n on input line 17.
LaTeX Font Info:    ... okay on input line 17.
LaTeX Font Info:    Checking defaults for PD1/pdf/m/n on input line 17.
LaTeX Font Info:    ... okay on input line 17.
\AtBeginShipoutBox=\box46

(/usr/share/texmf-dist/tex/latex/graphics/color.sty
Package: color 2019/11/23 v1.2a Standard LaTeX Color (DPC)

(/usr/share/texmf-dist/tex/latex/graphics-cfg/color.cfg
File: color.cfg 2016/01/02 v1.6 sample color configuration
)
Package color Info: Driver file: pdftex.def on input line 147.
)
Package hyperref Info: Link coloring ON on input line 17.

(/usr/share/texmf-dist/tex/latex/hyperref/nameref.sty
Package: nameref 2019/09/16 v2.46 Cross-referencing by name of section

(/usr/share/texmf-dist/tex/latex/refcount/refcount.sty
Package: refcount 2019/12/15 v3.6 Data extraction from label references (HO)
)
(/usr/share/texmf-dist/tex/generic/gettitlestring/gettitlestring.sty
Package: gettitlestring 2019/12/15 v1.6 Cleanup title references (HO)
)
\c@section@level=\count186
)
LaTeX Info: Redefining \ref on input line 17.
LaTeX Info: Redefining \pageref on input line 17.
LaTeX Info: Redefining \nameref on input line 17.

(./report.out) (./report.out)
\@outlinefile=\write3
\openout3 = `report.out'.


(/usr/share/texmf-dist/tex/context/base/mkii/supp-pdf.mkii
[Loading MPS to PDF converter (version 2006.09.02).]
\scratchcounter=\count187
\scratchdimen=\dimen141
\scratchbox=\box47
\nofMPsegments=\count188
\nofMParguments=\count189
\everyMPshowfont=\toks16
\MPscratchCnt=\count190
\MPscratchDim=\dimen142
\MPnumerator=\count191
\makeMPintoPDFobject=\count192
\everyMPtoPDFconversion=\toks17
) (/usr/share/texmf-dist/tex/latex/epstopdf-pkg/epstopdf-base.sty
Package: epstopdf-base 2020-01-24 v2.11 Base part for package epstopdf
Package epstopdf-base Info: Redefining graphics rule for `.eps' on input line 4
85.

(/usr/share/texmf-dist/tex/latex/latexconfig/epstopdf-sys.cfg
File: epstopdf-sys.cfg 2010/07/13 v1.3 Configuration of (r)epstopdf for TeX Liv
e
))
LaTeX Font Info:    External font `cmex10' loaded for size
(Font)              <12> on input line 19.
LaTeX Font Info:    External font `cmex10' loaded for size
(Font)              <8> on input line 19.
LaTeX Font Info:    External font `cmex10' loaded for size
(Font)              <6> on input line 19.
 [1

{/var/lib/texmf/fonts/map/pdftex/updmap/pdftex.map}] (./report.toc
LaTeX Font Info:    External font `cmex10' loaded for size
(Font)              <7> on input line 3.
LaTeX Font Info:    External font `cmex10' loaded for size
(Font)              <5> on input line 3.
 [2])
\tf@toc=\write4
\openout4 = `report.toc'.

 [3]
\openout2 = `brules.aux'.

 (./brules.tex)
[4

]
\openout2 = `databasedesign.aux'.

 (./databasedesign.tex
<./img/database.png, id=400, 934.49126pt x 1256.695pt>
File: ./img/database.png Graphic file (type png)
<use ./img/database.png>
Package pdftex.def Info: ./img/database.png  used on input line 3.
(pdftex.def)             Requested size: 345.0pt x 463.95357pt.
 [5


 <./img/database.png>]
Overfull \hbox (5.44838pt too wide) in paragraph at lines 9--10
\OT1/cmr/bx/n/10 BILL \OT1/cmr/m/n/10 ta-ble such as $[]$, And $[]$. \OT1/cmr/b
x/n/10 AVAIL-ABLE[]APARTMENTS
 []


Overfull \hbox (26.89449pt too wide) in paragraph at lines 9--10
\OT1/cmr/m/n/10 re-turns all the IDs of apart-ments that are not cur-rently ren
ted. \OT1/cmr/bx/n/10 RENTAL[]LENGTH
 []


Overfull \hbox (12.96213pt too wide) in paragraph at lines 11--12
\OT1/cmr/m/n/10 The \OT1/cmr/bx/n/10 RENTAL \OT1/cmr/m/n/10 ta-ble has had sev-
eral columns added. The $[]$ and $[]$
 []


Overfull \hbox (16.60242pt too wide) in paragraph at lines 11--12
\OT1/cmr/m/n/10 columns are for deal-ing with rental re-quests. The $[]$, $[]$,

 []

) [6]
\openout2 = `appdesc.aux'.

 (./appdesc.tex [7


] [8] [9] [10] [11]) [12]
\openout2 = `manual.aux'.

 (./manual.tex
<./img/man1.png, id=436, 966.61125pt x 466.74374pt>
File: ./img/man1.png Graphic file (type png)
<use ./img/man1.png>
Package pdftex.def Info: ./img/man1.png  used on input line 3.
(pdftex.def)             Requested size: 345.0pt x 166.58899pt.
<./img/man2.png, id=438, 961.5925pt x 662.475pt>
File: ./img/man2.png Graphic file (type png)
<use ./img/man2.png>
Package pdftex.def Info: ./img/man2.png  used on input line 6.
(pdftex.def)             Requested size: 345.0pt x 237.68213pt.
<./img/man3.png, id=439, 964.60374pt x 514.92375pt>
File: ./img/man3.png Graphic file (type png)
<use ./img/man3.png>
Package pdftex.def Info: ./img/man3.png  used on input line 9.
(pdftex.def)             Requested size: 345.0pt x 184.16241pt.
 [13


 <./img/man1.png> <./img/man2.png>]
<./img/man4.png, id=447, 951.555pt x 678.535pt>
File: ./img/man4.png Graphic file (type png)
<use ./img/man4.png>
Package pdftex.def Info: ./img/man4.png  used on input line 12.
(pdftex.def)             Requested size: 345.0pt x 246.01181pt.
 [14 <./img/man3.png> <./img/man4.png>]
<./img/man5.png, id=454, 951.555pt x 820.06375pt>
File: ./img/man5.png Graphic file (type png)
<use ./img/man5.png>
Package pdftex.def Info: ./img/man5.png  used on input line 23.
(pdftex.def)             Requested size: 345.0pt x 297.32494pt.
<./img/man6.png, id=455, 961.5925pt x 795.97375pt>
File: ./img/man6.png Graphic file (type png)
<use ./img/man6.png>
Package pdftex.def Info: ./img/man6.png  used on input line 26.
(pdftex.def)             Requested size: 345.0pt x 285.57869pt.
 [15 <./img/man5.png>]
<./img/man7.png, id=461, 963.6pt x 534.99875pt>
File: ./img/man7.png Graphic file (type png)
<use ./img/man7.png>
Package pdftex.def Info: ./img/man7.png  used on input line 30.
(pdftex.def)             Requested size: 345.0pt x 191.54631pt.
 [16 <./img/man6.png>]
<./img/man8.png, id=467, 964.60374pt x 701.62125pt>
File: ./img/man8.png Graphic file (type png)
<use ./img/man8.png>
Package pdftex.def Info: ./img/man8.png  used on input line 34.
(pdftex.def)             Requested size: 345.0pt x 250.93474pt.
<./img/man9.png, id=468, 961.5925pt x 557.08125pt>
File: ./img/man9.png Graphic file (type png)
<use ./img/man9.png>
Package pdftex.def Info: ./img/man9.png  used on input line 37.
(pdftex.def)             Requested size: 345.0pt x 199.86906pt.
 [17 <./img/man7.png> <./img/man8.png>]
<./img/man10.png, id=475, 964.60374pt x 568.1225pt>
File: ./img/man10.png Graphic file (type png)
<use ./img/man10.png>
Package pdftex.def Info: ./img/man10.png  used on input line 42.
(pdftex.def)             Requested size: 345.0pt x 203.18893pt.
<./img/man11.png, id=476, 963.6pt x 468.75125pt>
File: ./img/man11.png Graphic file (type png)
<use ./img/man11.png>
Package pdftex.def Info: ./img/man11.png  used on input line 47.
(pdftex.def)             Requested size: 345.0pt x 167.82764pt.
 [18 <./img/man9.png> <./img/man10.png>]
<./img/man12.png, id=483, 963.6pt x 686.565pt>
File: ./img/man12.png Graphic file (type png)
<use ./img/man12.png>
Package pdftex.def Info: ./img/man12.png  used on input line 52.
(pdftex.def)             Requested size: 345.0pt x 245.81178pt.
<./img/man13.png, id=484, 963.6pt x 770.88pt>
File: ./img/man13.png Graphic file (type png)
<use ./img/man13.png>
Package pdftex.def Info: ./img/man13.png  used on input line 57.
(pdftex.def)             Requested size: 345.0pt x 275.9992pt.
 [19 <./img/man11.png> <./img/man12.png>]
<./img/man14.png, id=492, 963.6pt x 635.37375pt>
File: ./img/man14.png Graphic file (type png)
<use ./img/man14.png>
Package pdftex.def Info: ./img/man14.png  used on input line 61.
(pdftex.def)             Requested size: 345.0pt x 227.48372pt.
 [20 <./img/man13.png>]
<./img/man15.png, id=498, 960.58875pt x 978.65625pt>
File: ./img/man15.png Graphic file (type png)
<use ./img/man15.png>
Package pdftex.def Info: ./img/man15.png  used on input line 65.
(pdftex.def)             Requested size: 345.0pt x 351.49466pt.
 [21 <./img/man14.png>]
<./img/man16.png, id=504, 963.6pt x 785.93625pt>
File: ./img/man16.png Graphic file (type png)
<use ./img/man16.png>
Package pdftex.def Info: ./img/man16.png  used on input line 76.
(pdftex.def)             Requested size: 345.0pt x 281.38982pt.
 [22 <./img/man15.png>]) [23 <./img/man16.png>]
Package atveryend Info: Empty hook `BeforeClearDocument' on input line 25.
Package atveryend Info: Empty hook `AfterLastShipout' on input line 25.
 (./report.aux (./brules.aux) (./databasedesign.aux) (./appdesc.aux)
(./manual.aux))
Package atveryend Info: Executing hook `AtVeryEndDocument' on input line 25.
Package atveryend Info: Executing hook `AtEndAfterFileList' on input line 25.
Package rerunfilecheck Info: File `report.out' has not changed.
(rerunfilecheck)             Checksum: D089A5BBA571E2E117BB556498328C6E;5467.
Package atveryend Info: Empty hook `AtVeryVeryEnd' on input line 25.
 ) 
Here is how much of TeX's memory you used:
 5575 strings out of 482935
 85350 string characters out of 5961040
 341650 words of memory out of 5000000
 20631 multiletter control sequences out of 15000+600000
 536928 words of font info for 39 fonts, out of 8000000 for 9000
 14 hyphenation exceptions out of 8191
 34i,6n,32p,503b,370s stack positions out of 5000i,500n,10000p,200000b,80000s
{/usr/share/texmf-dist/fonts/enc/dvips/cm-super/cm-super-ts1.enc}</usr/share/
texmf-dist/fonts/type1/public/amsfonts/cm/cmbx10.pfb></usr/share/texmf-dist/fon
ts/type1/public/amsfonts/cm/cmbx12.pfb></usr/share/texmf-dist/fonts/type1/publi
c/amsfonts/cm/cmr10.pfb></usr/share/texmf-dist/fonts/type1/public/amsfonts/cm/c
mr12.pfb></usr/share/texmf-dist/fonts/type1/public/amsfonts/cm/cmr17.pfb></usr/
share/texmf-dist/fonts/type1/public/cm-super/sfrm1000.pfb>
Output written on report.pdf (23 pages, 914308 bytes).
PDF statistics:
 561 PDF objects out of 1000 (max. 8388607)
 492 compressed objects within 5 object streams
 100 named destinations out of 1000 (max. 500000)
 678 words of extra memory for PDF output out of 10000 (max. 10000000)

